{
  "name": "Ohancanu",
  "type": "npc",
  "img": "systems/pf1/icons/races/creature-types/fey.png",
  "data": {
    "abilities": {
      "str": {
        "total": 23,
        "mod": 6,
        "value": 23,
        "carryBonus": 0,
        "carryMultiplier": 1,
        "checkMod": 0,
        "damage": 0,
        "drain": 0,
        "penalty": 0,
        "userPenalty": 0,
        "base": 10,
        "baseMod": 0
      },
      "dex": {
        "total": 14,
        "mod": 2,
        "value": 14,
        "checkMod": 0,
        "damage": 0,
        "drain": 0,
        "penalty": 0,
        "userPenalty": 0,
        "base": 10,
        "baseMod": 0
      },
      "con": {
        "total": 19,
        "mod": 4,
        "value": 19,
        "checkMod": 0,
        "damage": 0,
        "drain": 0,
        "penalty": 0,
        "userPenalty": 0,
        "base": 10,
        "baseMod": 0
      },
      "int": {
        "total": 7,
        "mod": -2,
        "value": 7,
        "checkMod": 0,
        "damage": 0,
        "drain": 0,
        "penalty": 0,
        "userPenalty": 0,
        "base": 10,
        "baseMod": 0
      },
      "wis": {
        "total": 14,
        "mod": 2,
        "value": 14,
        "checkMod": 0,
        "damage": 0,
        "drain": 0,
        "penalty": 0,
        "userPenalty": 0,
        "base": 10,
        "baseMod": 0
      },
      "cha": {
        "total": 8,
        "mod": -1,
        "value": 8,
        "checkMod": 0,
        "damage": 0,
        "drain": 0,
        "penalty": 0,
        "userPenalty": 0,
        "base": 10,
        "baseMod": 0
      }
    },
    "resources": {},
    "attributes": {
      "encumbrance": {
        "level": 0,
        "levels": {
          "light": 33,
          "medium": 66,
          "heavy": 100,
          "carry": 200,
          "drag": 500
        },
        "carriedWeight": 0
      },
      "vision": {
        "lowLight": false,
        "darkvision": 0
      },
      "hpAbility": "con",
      "cmbAbility": "str",
      "hd": {
        "base": {
          "_deprecated": true,
          "value": 0
        },
        "total": 1,
        "max": {
          "_deprecated": true,
          "value": 0
        }
      },
      "naturalAC": "+6",
      "ac": {
        "normal": {
          "value": 0,
          "total": 17
        },
        "touch": {
          "value": 0,
          "total": 11
        },
        "flatFooted": {
          "value": 0,
          "total": 15
        }
      },
      "bab": {
        "value": 0,
        "total": 3
      },
      "cmd": {
        "value": 0,
        "total": 22,
        "flatFootedTotal": 10
      },
      "cmb": {
        "value": 0,
        "total": 10
      },
      "sr": {
        "formula": "",
        "total": 0
      },
      "saveNotes": "",
      "acNotes": "",
      "cmdNotes": "",
      "srNotes": "",
      "attack": {
        "general": 0,
        "shared": 0,
        "melee": 0,
        "ranged": 0,
        "meleeAbility": "str",
        "rangedAbility": "dex"
      },
      "damage": {
        "general": 0,
        "weapon": 0,
        "spell": 0
      },
      "maxDexBonus": null,
      "mDex": {
        "armorBonus": 0,
        "shieldBonus": 0
      },
      "acp": {
        "gear": 0,
        "encumbrance": 0,
        "total": 0,
        "armorBonus": 0,
        "shieldBonus": 0,
        "attackPenalty": 0
      },
      "energyDrain": 0,
      "quadruped": false,
      "savingThrows": {
        "fort": {
          "base": 0,
          "total": 0,
          "ability": "con"
        },
        "ref": {
          "base": 0,
          "total": 0,
          "ability": "dex"
        },
        "will": {
          "base": 0,
          "total": 0,
          "ability": "wis"
        }
      },
      "hp": {
        "value": 58,
        "base": 0,
        "max": 0,
        "temp": 0,
        "nonlethal": 0
      },
      "wounds": {
        "min": 0,
        "max": 0,
        "base": 0,
        "value": 0
      },
      "vigor": {
        "min": 0,
        "value": 0,
        "temp": 0,
        "max": 0,
        "base": 0
      },
      "woundThresholds": {
        "penalty": 0,
        "mod": 0,
        "level": 0,
        "override": -1
      },
      "init": {
        "value": 0,
        "bonus": 0,
        "total": 6,
        "ability": "dex"
      },
      "prof": 2,
      "speed": {
        "land": {
          "base": 30,
          "total": 30
        },
        "climb": {
          "base": 0,
          "total": null
        },
        "swim": {
          "base": 0,
          "total": null
        },
        "burrow": {
          "base": 0,
          "total": null
        },
        "fly": {
          "base": 0,
          "total": null,
          "maneuverability": "average"
        }
      },
      "conditions": {
        "bleed": false,
        "blind": false,
        "confused": false,
        "dazed": false,
        "dazzled": false,
        "deaf": false,
        "entangled": false,
        "fatigued": false,
        "frightened": false,
        "exhausted": false,
        "grappled": false,
        "helpless": false,
        "incorporeal": false,
        "invisible": false,
        "nauseated": false,
        "panicked": false,
        "paralyzed": false,
        "pinned": false,
        "prone": false,
        "shaken": false,
        "sickened": false,
        "staggered": false,
        "stunned": false
      },
      "spells": {
        "usedSpellbooks": [],
        "spellbooks": {
          "primary": {
            "altName": "",
            "castPerDayAllOffsetFormula": "",
            "preparedAllOffsetFormula": "",
            "name": "Primary",
            "casterType": "high",
            "class": "",
            "cl": {
              "base": 0,
              "value": 0,
              "total": 0,
              "formula": ""
            },
            "concentration": 0,
            "concentrationFormula": "",
            "concentrationNotes": "",
            "clNotes": "",
            "ability": "int",
            "autoSpellLevelCalculation": true,
            "autoSpellLevels": true,
            "arcaneSpellFailure": true,
            "hasCantrips": true,
            "spellPreparationMode": "spontaneous",
            "baseDCFormula": "10 + @sl + @ablMod",
            "spontaneous": false,
            "spellPoints": {
              "useSystem": false,
              "value": 0,
              "max": 0,
              "maxFormula": "",
              "restoreFormula": ""
            },
            "spells": {
              "spell0": {
                "castPerDayOffsetFormula": "",
                "preparedOffsetFormula": ""
              },
              "spell1": {
                "castPerDayOffsetFormula": "",
                "preparedOffsetFormula": ""
              },
              "spell2": {
                "castPerDayOffsetFormula": "",
                "preparedOffsetFormula": ""
              },
              "spell3": {
                "castPerDayOffsetFormula": "",
                "preparedOffsetFormula": ""
              },
              "spell4": {
                "castPerDayOffsetFormula": "",
                "preparedOffsetFormula": ""
              },
              "spell5": {
                "castPerDayOffsetFormula": "",
                "preparedOffsetFormula": ""
              },
              "spell6": {
                "castPerDayOffsetFormula": "",
                "preparedOffsetFormula": ""
              },
              "spell7": {
                "castPerDayOffsetFormula": "",
                "preparedOffsetFormula": ""
              },
              "spell8": {
                "castPerDayOffsetFormula": "",
                "preparedOffsetFormula": ""
              },
              "spell9": {
                "castPerDayOffsetFormula": "",
                "preparedOffsetFormula": ""
              }
            },
            "spellSlotAbilityBonusFormula": "",
            "domainSlotValue": 1
          },
          "secondary": {
            "altName": "",
            "castPerDayAllOffsetFormula": "",
            "preparedAllOffsetFormula": "",
            "name": "Secondary",
            "casterType": "high",
            "class": "",
            "cl": {
              "base": 0,
              "value": 0,
              "total": 0,
              "formula": ""
            },
            "concentration": 0,
            "concentrationFormula": "",
            "concentrationNotes": "",
            "clNotes": "",
            "ability": "int",
            "autoSpellLevelCalculation": true,
            "autoSpellLevels": true,
            "arcaneSpellFailure": true,
            "hasCantrips": true,
            "spellPreparationMode": "spontaneous",
            "baseDCFormula": "10 + @sl + @ablMod",
            "spontaneous": false,
            "spellPoints": {
              "useSystem": false,
              "value": 0,
              "max": 0,
              "maxFormula": "",
              "restoreFormula": ""
            },
            "spells": {
              "spell0": {
                "castPerDayOffsetFormula": "",
                "preparedOffsetFormula": ""
              },
              "spell1": {
                "castPerDayOffsetFormula": "",
                "preparedOffsetFormula": ""
              },
              "spell2": {
                "castPerDayOffsetFormula": "",
                "preparedOffsetFormula": ""
              },
              "spell3": {
                "castPerDayOffsetFormula": "",
                "preparedOffsetFormula": ""
              },
              "spell4": {
                "castPerDayOffsetFormula": "",
                "preparedOffsetFormula": ""
              },
              "spell5": {
                "castPerDayOffsetFormula": "",
                "preparedOffsetFormula": ""
              },
              "spell6": {
                "castPerDayOffsetFormula": "",
                "preparedOffsetFormula": ""
              },
              "spell7": {
                "castPerDayOffsetFormula": "",
                "preparedOffsetFormula": ""
              },
              "spell8": {
                "castPerDayOffsetFormula": "",
                "preparedOffsetFormula": ""
              },
              "spell9": {
                "castPerDayOffsetFormula": "",
                "preparedOffsetFormula": ""
              }
            },
            "spellSlotAbilityBonusFormula": "",
            "domainSlotValue": 1
          },
          "tertiary": {
            "altName": "",
            "castPerDayAllOffsetFormula": "",
            "preparedAllOffsetFormula": "",
            "name": "Tertiary",
            "casterType": "high",
            "class": "",
            "cl": {
              "base": 0,
              "value": 0,
              "total": 0,
              "formula": ""
            },
            "concentration": 0,
            "concentrationFormula": "",
            "concentrationNotes": "",
            "clNotes": "",
            "ability": "int",
            "autoSpellLevelCalculation": true,
            "autoSpellLevels": true,
            "arcaneSpellFailure": true,
            "hasCantrips": true,
            "spellPreparationMode": "spontaneous",
            "baseDCFormula": "10 + @sl + @ablMod",
            "spontaneous": false,
            "spellPoints": {
              "useSystem": false,
              "value": 0,
              "max": 0,
              "maxFormula": "",
              "restoreFormula": ""
            },
            "spells": {
              "spell0": {
                "castPerDayOffsetFormula": "",
                "preparedOffsetFormula": ""
              },
              "spell1": {
                "castPerDayOffsetFormula": "",
                "preparedOffsetFormula": ""
              },
              "spell2": {
                "castPerDayOffsetFormula": "",
                "preparedOffsetFormula": ""
              },
              "spell3": {
                "castPerDayOffsetFormula": "",
                "preparedOffsetFormula": ""
              },
              "spell4": {
                "castPerDayOffsetFormula": "",
                "preparedOffsetFormula": ""
              },
              "spell5": {
                "castPerDayOffsetFormula": "",
                "preparedOffsetFormula": ""
              },
              "spell6": {
                "castPerDayOffsetFormula": "",
                "preparedOffsetFormula": ""
              },
              "spell7": {
                "castPerDayOffsetFormula": "",
                "preparedOffsetFormula": ""
              },
              "spell8": {
                "castPerDayOffsetFormula": "",
                "preparedOffsetFormula": ""
              },
              "spell9": {
                "castPerDayOffsetFormula": "",
                "preparedOffsetFormula": ""
              }
            },
            "spellSlotAbilityBonusFormula": "",
            "domainSlotValue": 1
          },
          "spelllike": {
            "altName": "",
            "castPerDayAllOffsetFormula": "",
            "preparedAllOffsetFormula": "",
            "name": "Spell-likes",
            "casterType": "high",
            "class": "_hd",
            "cl": {
              "base": 0,
              "value": 0,
              "total": 0,
              "formula": ""
            },
            "concentration": 0,
            "concentrationFormula": "",
            "concentrationNotes": "",
            "clNotes": "",
            "ability": "cha",
            "autoSpellLevelCalculation": true,
            "autoSpellLevels": true,
            "arcaneSpellFailure": true,
            "hasCantrips": true,
            "spellPreparationMode": "spontaneous",
            "baseDCFormula": "10 + @sl + @ablMod",
            "spontaneous": false,
            "spellPoints": {
              "useSystem": false,
              "value": 0,
              "max": 0,
              "maxFormula": "",
              "restoreFormula": ""
            },
            "spells": {
              "spell0": {
                "castPerDayOffsetFormula": "",
                "preparedOffsetFormula": ""
              },
              "spell1": {
                "castPerDayOffsetFormula": "",
                "preparedOffsetFormula": ""
              },
              "spell2": {
                "castPerDayOffsetFormula": "",
                "preparedOffsetFormula": ""
              },
              "spell3": {
                "castPerDayOffsetFormula": "",
                "preparedOffsetFormula": ""
              },
              "spell4": {
                "castPerDayOffsetFormula": "",
                "preparedOffsetFormula": ""
              },
              "spell5": {
                "castPerDayOffsetFormula": "",
                "preparedOffsetFormula": ""
              },
              "spell6": {
                "castPerDayOffsetFormula": "",
                "preparedOffsetFormula": ""
              },
              "spell7": {
                "castPerDayOffsetFormula": "",
                "preparedOffsetFormula": ""
              },
              "spell8": {
                "castPerDayOffsetFormula": "",
                "preparedOffsetFormula": ""
              },
              "spell9": {
                "castPerDayOffsetFormula": "",
                "preparedOffsetFormula": ""
              }
            },
            "spellSlotAbilityBonusFormula": "",
            "domainSlotValue": 1
          }
        }
      },
      "spellcasting": {
        "_deprecated": true
      },
      "spelldc": {
        "_deprecated": true
      },
      "spellLevel": 0
    },
    "details": {
      "level": {
        "value": 0,
        "min": 0,
        "max": 40
      },
      "mythicTier": 0,
      "bonusFeatFormula": "",
      "alignment": "ce",
      "biography": {
        "value": "",
        "public": ""
      },
      "notes": {
        "value": "",
        "public": ""
      },
      "bonusSkillRankFormula": "",
      "tooltip": {
        "name": "",
        "hideHeld": false,
        "hideArmor": false,
        "hideBuffs": false,
        "hideConditions": false,
        "hideClothing": false,
        "hideName": false
      },
      "type": "",
      "environment": "",
      "cr": {
        "base": 5,
        "total": 5
      },
      "xp": {
        "value": 10
      }
    },
    "skills": {
      "acr": {
        "value": 0,
        "ability": "dex",
        "rt": false,
        "acp": true,
        "rank": 0,
        "mod": 0,
        "background": false
      },
      "apr": {
        "value": 0,
        "ability": "int",
        "rt": false,
        "acp": false,
        "rank": 0,
        "mod": 0,
        "background": true
      },
      "art": {
        "value": 0,
        "ability": "int",
        "rt": false,
        "acp": false,
        "rank": 0,
        "mod": 0,
        "background": true
      },
      "blf": {
        "value": 0,
        "ability": "cha",
        "rt": false,
        "acp": false,
        "rank": 0,
        "mod": 0,
        "background": false
      },
      "clm": {
        "value": 0,
        "ability": "str",
        "rt": false,
        "acp": true,
        "rank": 7,
        "mod": 0,
        "background": false
      },
      "crf": {
        "value": 0,
        "ability": "int",
        "rt": false,
        "acp": false,
        "rank": 0,
        "mod": 0,
        "background": true
      },
      "dip": {
        "value": 0,
        "ability": "cha",
        "rt": false,
        "acp": false,
        "rank": 0,
        "mod": 0,
        "background": false
      },
      "dev": {
        "value": 0,
        "ability": "dex",
        "rt": true,
        "acp": true,
        "rank": 0,
        "mod": 0,
        "background": false
      },
      "dis": {
        "value": 0,
        "ability": "cha",
        "rt": false,
        "acp": false,
        "rank": 0,
        "mod": 0,
        "background": false
      },
      "esc": {
        "value": 0,
        "ability": "dex",
        "rt": false,
        "acp": true,
        "rank": 0,
        "mod": 0,
        "background": false
      },
      "fly": {
        "value": 0,
        "ability": "dex",
        "rt": false,
        "acp": true,
        "rank": 0,
        "mod": 0,
        "background": false
      },
      "han": {
        "value": 0,
        "ability": "cha",
        "rt": true,
        "acp": false,
        "rank": 0,
        "mod": 0,
        "background": true
      },
      "hea": {
        "value": 0,
        "ability": "wis",
        "rt": false,
        "acp": false,
        "rank": 0,
        "mod": 0,
        "background": false
      },
      "int": {
        "value": 0,
        "ability": "cha",
        "rt": false,
        "acp": false,
        "rank": 13,
        "mod": 0,
        "background": false
      },
      "kar": {
        "value": 0,
        "ability": "int",
        "rt": true,
        "acp": false,
        "rank": 0,
        "mod": 0,
        "background": false
      },
      "kdu": {
        "value": 0,
        "ability": "int",
        "rt": true,
        "acp": false,
        "rank": 0,
        "mod": 0,
        "background": false
      },
      "ken": {
        "value": 0,
        "ability": "int",
        "rt": true,
        "acp": false,
        "rank": 0,
        "mod": 0,
        "background": true
      },
      "kge": {
        "value": 0,
        "ability": "int",
        "rt": true,
        "acp": false,
        "rank": 0,
        "mod": 0,
        "background": true
      },
      "khi": {
        "value": 0,
        "ability": "int",
        "rt": true,
        "acp": false,
        "rank": 0,
        "mod": 0,
        "background": true
      },
      "klo": {
        "value": 0,
        "ability": "int",
        "rt": true,
        "acp": false,
        "rank": 0,
        "mod": 0,
        "background": false
      },
      "kna": {
        "value": 0,
        "ability": "int",
        "rt": true,
        "acp": false,
        "rank": 0,
        "mod": 0,
        "background": false
      },
      "kno": {
        "value": 0,
        "ability": "int",
        "rt": true,
        "acp": false,
        "rank": 0,
        "mod": 0,
        "background": true
      },
      "kpl": {
        "value": 0,
        "ability": "int",
        "rt": true,
        "acp": false,
        "rank": 0,
        "mod": 0,
        "background": false
      },
      "kre": {
        "value": 0,
        "ability": "int",
        "rt": true,
        "acp": false,
        "rank": 0,
        "mod": 0,
        "background": false
      },
      "lin": {
        "value": 0,
        "ability": "int",
        "rt": true,
        "acp": false,
        "rank": 0,
        "mod": 0,
        "background": true
      },
      "lor": {
        "value": 0,
        "ability": "int",
        "rt": true,
        "acp": false,
        "rank": 0,
        "mod": 0,
        "background": true
      },
      "per": {
        "value": 0,
        "ability": "wis",
        "rt": false,
        "acp": false,
        "rank": 7,
        "mod": 0,
        "background": false
      },
      "prf": {
        "value": 0,
        "ability": "cha",
        "rt": false,
        "acp": false,
        "rank": 0,
        "mod": 0,
        "background": true
      },
      "pro": {
        "value": 0,
        "ability": "wis",
        "rt": true,
        "acp": false,
        "rank": 0,
        "mod": 0,
        "background": true
      },
      "rid": {
        "value": 0,
        "ability": "dex",
        "rt": false,
        "acp": true,
        "rank": 0,
        "mod": 0,
        "background": false
      },
      "sen": {
        "value": 0,
        "ability": "wis",
        "rt": false,
        "acp": false,
        "rank": 0,
        "mod": 0,
        "background": false
      },
      "slt": {
        "value": 0,
        "ability": "dex",
        "rt": true,
        "acp": true,
        "rank": 0,
        "mod": 0,
        "background": true
      },
      "spl": {
        "value": 0,
        "ability": "int",
        "rt": true,
        "acp": false,
        "rank": 0,
        "mod": 0,
        "background": false
      },
      "ste": {
        "value": 0,
        "ability": "dex",
        "rt": false,
        "acp": true,
        "rank": 0,
        "mod": 0,
        "background": false
      },
      "sur": {
        "value": 0,
        "ability": "wis",
        "rt": false,
        "acp": false,
        "rank": 0,
        "mod": 0,
        "background": false
      },
      "swm": {
        "value": 0,
        "ability": "str",
        "rt": false,
        "acp": true,
        "rank": 7,
        "mod": 0,
        "background": false
      },
      "umd": {
        "value": 0,
        "ability": "cha",
        "rt": true,
        "acp": false,
        "rank": 0,
        "mod": 0,
        "background": false
      }
    },
    "customSkills": {},
    "traits": {
      "size": "lg",
      "senses": "low-light vision; Perception +12",
      "dr": "5/cold iron",
      "eres": "",
      "cres": "",
      "regen": "",
      "fastHealing": "",
      "languages": {
        "value": [
          "aklo",
          "common",
          "sylvan"
        ],
        "custom": ""
      },
      "di": {
        "value": [],
        "custom": ""
      },
      "dv": {
        "value": [],
        "custom": "White Hairs"
      },
      "ci": {
        "value": [],
        "custom": ""
      },
      "perception": {
        "_deprecated": true
      },
      "stature": ""
    },
    "currency": {
      "pp": 0,
      "gp": 0,
      "sp": 0,
      "cp": 0
    },
    "altCurrency": {
      "pp": 0,
      "gp": 0,
      "sp": 0,
      "cp": 0
    }
  },
  "token": {
    "name": "Ohancanu",
    "displayName": 20,
    "actorLink": false,
    "width": 2,
    "height": 2,
    "scale": 1,
    "mirrorX": false,
    "mirrorY": false,
    "lockRotation": false,
    "rotation": 0,
    "alpha": 1,
    "vision": false,
    "dimSight": 0,
    "brightSight": 0,
    "dimLight": 0,
    "brightLight": 0,
    "sightAngle": 0,
    "lightAngle": 0,
    "lightAlpha": 0.25,
    "lightAnimation": {
      "speed": 5,
      "intensity": 5
    },
    "disposition": -1,
    "displayBars": 20,
    "bar1": {
      "attribute": null
    },
    "bar2": {
      "attribute": null
    },
    "flags": {
      "pf1": {
        "lowLightVision": true
      }
    },
    "randomImg": false,
    "img": "systems/pf1/icons/races/creature-types/fey.png"
  },
  "items": [
    {
      "_id": "0jjH2XJVd6dzlaSm",
      "name": "Fey (Water)",
      "type": "class",
      "img": "systems/pf1/icons/skills/green_10.jpg",
      "data": {
        "description": {
          "value": "<p>A fey is a creature with supernatural abilities and connections to nature or to some other force or place. Fey are usually human-shaped.</p>\n<h2><span id=\"Features\">Features</span></h2>\n<p>A fey has the following features.</p>\n<ul>\n<li>d6 Hit Die.</li>\n<li>Base attack bonus equal to 1/2 total Hit Dice (slow progression).</li>\n<li>Good&nbsp;<a href=\"https://www.d20pfsrd.com/gamemastering/combat#TOC-Reflex\">Reflex</a>&nbsp;and&nbsp;<a href=\"https://www.d20pfsrd.com/gamemastering/combat#TOC-Will\">Will</a>&nbsp;Saves.</li>\n<li>Skill points equal to 6 + Int modifier (minimum 1) per Hit Die. The following are class skills for fey: <a href=\"https://www.d20pfsrd.com/skills/acrobatics\">Acrobatics</a>, <a href=\"https://www.d20pfsrd.com/skills/bluff\">Bluff</a>, <a href=\"https://www.d20pfsrd.com/skills/climb\">Climb</a>, <a href=\"https://www.d20pfsrd.com/skills/craft\">Craft</a>, <a href=\"https://www.d20pfsrd.com/skills/diplomacy\">Diplomacy</a>, <a href=\"https://www.d20pfsrd.com/skills/disguise\">Disguise</a>, <a href=\"https://www.d20pfsrd.com/skills/escape-artist\">Escape Artist</a>, <a href=\"https://www.d20pfsrd.com/skills/fly\">Fly</a>, <a href=\"https://www.d20pfsrd.com/skills/knowledge\">Knowledge</a>&nbsp;(geography), <a href=\"https://www.d20pfsrd.com/skills/knowledge\">Knowledge</a>&nbsp;(local), <a href=\"https://www.d20pfsrd.com/skills/knowledge\">Knowledge</a>&nbsp;(nature), <a href=\"https://www.d20pfsrd.com/skills/perception\">Perception</a>, <a href=\"https://www.d20pfsrd.com/skills/perform\">Perform</a>, <a href=\"https://www.d20pfsrd.com/skills/sense-motive\">Sense Motive</a>, <a href=\"https://www.d20pfsrd.com/skills/sleight-of-hand\">Sleight of Hand</a>, <a href=\"https://www.d20pfsrd.com/skills/stealth\">Stealth</a>, <a href=\"https://www.d20pfsrd.com/skills/swim\">Swim</a>, <a href=\"https://www.d20pfsrd.com/skills/use-magic-device\">Use Magic Device</a>.</li>\n</ul>\n<h2>Traits</h2>\n<p>A fey possesses the following traits (unless otherwise noted in a creature’s entry).</p>\n<ul>\n<li><a href=\"https://www.d20pfsrd.com/gamemastering/special-abilities#TOC-Low-Light-Vision\">Low-light vision</a>.</li>\n<li>Proficient with all simple weapons and any weapons mentioned in its entry.</li>\n<li>Proficient with whatever type of armor (light, medium, or heavy) it is described as wearing, as well as all lighter types. Fey not indicated as wearing armor are not proficient with armor. Fey are proficient with shields if they are proficient with any form of armor.</li>\n<li>Fey breathe, eat, and sleep.</li>\n</ul>",
          "chat": "",
          "unidentified": ""
        },
        "tags": [],
        "changes": [],
        "changeFlags": {
          "loseDexToAC": false,
          "noEncumbrance": false,
          "mediumArmorFullSpeed": false,
          "heavyArmorFullSpeed": false,
          "noStr": false,
          "noDex": false,
          "oneInt": false,
          "oneWis": false,
          "oneCha": false
        },
        "links": "",
        "tag": "fey",
        "useCustomTag": true,
        "armorProf": {
          "value": [],
          "custom": ""
        },
        "weaponProf": {
          "value": [],
          "custom": ""
        },
        "flags": {
          "boolean": [],
          "dictionary": []
        },
        "scriptCalls": [],
        "classType": "racial",
        "levels": 1,
        "level": 7,
        "hd": 6,
        "hp": 30,
        "bab": "low",
        "skillsPerLevel": 6,
        "savingThrows": {
          "fort": {
            "value": "low"
          },
          "ref": {
            "value": "high"
          },
          "will": {
            "value": "high"
          }
        },
        "fc": {
          "hp": {
            "value": 0
          },
          "skill": {
            "value": 0
          },
          "alt": {
            "value": 0
          }
        },
        "classSkills": {
          "acr": true,
          "apr": false,
          "art": false,
          "blf": true,
          "clm": true,
          "crf": true,
          "dip": true,
          "dev": false,
          "dis": true,
          "esc": true,
          "fly": true,
          "han": false,
          "hea": false,
          "int": false,
          "kar": false,
          "kdu": false,
          "ken": false,
          "kge": true,
          "khi": false,
          "klo": true,
          "kna": true,
          "kno": false,
          "kpl": false,
          "kre": false,
          "lin": false,
          "lor": false,
          "per": true,
          "prf": true,
          "pro": false,
          "rid": false,
          "sen": true,
          "slt": true,
          "spl": false,
          "ste": true,
          "sur": false,
          "swm": true,
          "umd": true
        },
        "damage": {
          "parts": []
        }
      },
      "effects": [],
      "folder": null,
      "sort": 0,
      "permission": {
        "default": 0
      },
      "flags": {}
    },
    {
      "_id": "0pltlnyud4fq9rrq",
      "name": "Race: Fey",
      "type": "race",
      "img": "systems/pf1/icons/skills/green_10.jpg",
      "data": {
        "description": {
          "value": "sbc | As no playable race was found a placeholder was generated.",
          "chat": "",
          "unidentified": ""
        },
        "tags": [],
        "changes": [],
        "changeFlags": {
          "loseDexToAC": false,
          "noEncumbrance": false,
          "mediumArmorFullSpeed": false,
          "heavyArmorFullSpeed": false
        },
        "contextNotes": [],
        "links": {
          "children": []
        },
        "armorProf": {
          "value": [],
          "custom": ""
        },
        "weaponProf": {
          "value": [],
          "custom": ""
        },
        "flags": {
          "boolean": [],
          "dictionary": []
        },
        "scriptCalls": [],
        "creatureType": "fey",
        "subTypes": [
          [
            ""
          ]
        ]
      },
      "effects": [],
      "folder": null,
      "sort": 0,
      "permission": {
        "default": 0
      },
      "flags": {}
    },
    {
      "_id": "lgy8h3vpufokkfig",
      "name": "Sense: Low-light Vision",
      "type": "feat",
      "img": "systems/pf1/icons/skills/shadow_11.jpg",
      "data": {
        "description": {
          "value": "A creature with low-light vision can see twice as far as a human in starlight, moonlight, torchlight, and similar conditions of dim light. It retains the ability to distinguish color and detail under these conditions.",
          "chat": "",
          "unidentified": ""
        },
        "tags": [],
        "activation": {
          "cost": 1,
          "type": ""
        },
        "unchainedAction": {
          "activation": {
            "cost": 1,
            "type": ""
          }
        },
        "duration": {
          "value": null,
          "units": ""
        },
        "target": {
          "value": ""
        },
        "range": {
          "value": null,
          "units": "",
          "maxIncrements": 1,
          "minValue": null,
          "minUnits": ""
        },
        "uses": {
          "value": 0,
          "max": 0,
          "per": null,
          "autoDeductCharges": true,
          "autoDeductChargesCost": "1"
        },
        "measureTemplate": {
          "type": "",
          "size": "",
          "overrideColor": false,
          "customColor": "",
          "overrideTexture": false,
          "customTexture": ""
        },
        "attackName": "",
        "actionType": null,
        "attackBonus": "",
        "critConfirmBonus": "",
        "damage": {
          "parts": [],
          "critParts": [],
          "nonCritParts": []
        },
        "attackParts": [],
        "formulaicAttacks": {
          "count": {
            "formula": "",
            "value": null
          },
          "bonus": {
            "formula": ""
          },
          "label": null
        },
        "formula": "",
        "ability": {
          "attack": null,
          "damage": null,
          "damageMult": 1,
          "critRange": 20,
          "critMult": 2
        },
        "save": {
          "dc": 0,
          "type": "",
          "description": ""
        },
        "effectNotes": "",
        "attackNotes": "",
        "soundEffect": "",
        "changes": [],
        "changeFlags": {
          "loseDexToAC": false,
          "noEncumbrance": false,
          "mediumArmorFullSpeed": false,
          "heavyArmorFullSpeed": false
        },
        "contextNotes": [],
        "links": {
          "children": [],
          "charges": []
        },
        "tag": "senseLowlightVision",
        "useCustomTag": false,
        "armorProf": {
          "value": [],
          "custom": ""
        },
        "weaponProf": {
          "value": [],
          "custom": ""
        },
        "flags": {
          "boolean": [],
          "dictionary": []
        },
        "scriptCalls": [],
        "featType": "racial",
        "associations": {
          "classes": []
        },
        "showInQuickbar": false,
        "nonlethal": false,
        "abilityType": "ex",
        "crOffset": "",
        "disabled": false,
        "attack": {
          "parts": []
        }
      },
      "effects": [],
      "folder": null,
      "sort": 0,
      "permission": {
        "default": 0
      },
      "flags": {}
    },
    {
      "_id": "Uuiu3p982omhMEPj",
      "name": "Improved Initiative",
      "type": "feat",
      "img": "systems/pf1/icons/feats/improved-initiative.jpg",
      "data": {
        "description": {
          "value": "\n                <i>Your quick reflexes allow you to react rapidly to danger.</i>\n                <br />\n                <br />\n                \n                <p><b>Benefits</b></p>\n                <p><p class=\"stat-block-1\"> You get a +4 bonus on initiative checks.</p></p>\n                \n            \n            ",
          "chat": "",
          "unidentified": ""
        },
        "tags": [
          [
            "Combat"
          ]
        ],
        "activation": {
          "cost": 1,
          "type": ""
        },
        "unchainedAction": {
          "activation": {
            "cost": 1,
            "type": ""
          }
        },
        "duration": {
          "value": null,
          "units": ""
        },
        "target": {
          "value": ""
        },
        "range": {
          "value": null,
          "units": "",
          "maxIncrements": 1,
          "minValue": null,
          "minUnits": "",
          "long": null
        },
        "uses": {
          "value": 0,
          "max": 0,
          "per": null,
          "autoDeductCharges": true,
          "autoDeductChargesCost": "1"
        },
        "measureTemplate": {
          "type": "",
          "size": "0",
          "overrideColor": false,
          "customColor": "",
          "overrideTexture": false,
          "customTexture": ""
        },
        "attackName": "",
        "actionType": "",
        "attackBonus": "",
        "critConfirmBonus": "",
        "damage": {
          "parts": [],
          "critParts": [],
          "nonCritParts": []
        },
        "attackParts": [],
        "formulaicAttacks": {
          "count": {
            "formula": "",
            "value": null
          },
          "bonus": {
            "formula": ""
          },
          "label": null
        },
        "formula": "",
        "ability": {
          "attack": null,
          "damage": null,
          "damageMult": 1,
          "critRange": 20,
          "critMult": 2
        },
        "save": {
          "dc": 0,
          "type": "",
          "description": ""
        },
        "effectNotes": "",
        "attackNotes": "",
        "soundEffect": "",
        "changes": [
          {
            "_id": "ign7okhi",
            "formula": "4",
            "operator": "add",
            "subTarget": "init",
            "modifier": "untyped",
            "priority": 0,
            "value": 0,
            "target": "misc"
          }
        ],
        "changeFlags": {
          "loseDexToAC": false,
          "noEncumbrance": false,
          "mediumArmorFullSpeed": false,
          "heavyArmorFullSpeed": false,
          "noStr": false,
          "noDex": false,
          "oneInt": false,
          "oneWis": false,
          "oneCha": false
        },
        "contextNotes": [],
        "links": {
          "children": [],
          "charges": []
        },
        "tag": "improvedInitiative",
        "useCustomTag": false,
        "armorProf": {
          "value": [],
          "custom": ""
        },
        "weaponProf": {
          "value": [],
          "custom": ""
        },
        "flags": {
          "boolean": [],
          "dictionary": []
        },
        "scriptCalls": [],
        "featType": "feat",
        "associations": {
          "classes": []
        },
        "showInQuickbar": false,
        "nonlethal": false,
        "abilityType": "none",
        "crOffset": "",
        "disabled": false,
        "recharge": {
          "value": null,
          "charged": false,
          "_deprecated": true
        },
        "time": {
          "value": "",
          "_deprecated": true
        },
        "damageType": {
          "value": "",
          "_deprecated": true
        },
        "attack": {
          "parts": []
        }
      },
      "effects": [],
      "folder": null,
      "sort": 0,
      "permission": {
        "default": 0
      },
      "flags": {}
    },
    {
      "_id": "O0jbkTJcIji9BNiF",
      "name": "Intimidating Prowess",
      "type": "feat",
      "img": "systems/pf1/icons/feats/intimidating-prowess.jpg",
      "data": {
        "description": {
          "value": "\n                <i>Your physical might is intimidating to others.</i>\n                <br />\n                <br />\n                \n                <p><b>Benefits</b></p>\n                <p><p class=\"stat-block-1\"> Add your Strength modifier to Intimidate skill checks in addition to your Charisma modifier.</p></p>\n                \n            \n            ",
          "chat": "",
          "unidentified": ""
        },
        "tags": [
          [
            "General"
          ],
          [
            "Skill"
          ]
        ],
        "activation": {
          "cost": 1,
          "type": ""
        },
        "unchainedAction": {
          "activation": {
            "cost": 1,
            "type": ""
          }
        },
        "duration": {
          "value": null,
          "units": ""
        },
        "target": {
          "value": ""
        },
        "range": {
          "value": null,
          "units": "",
          "maxIncrements": 1,
          "minValue": null,
          "minUnits": "",
          "long": null
        },
        "uses": {
          "value": 0,
          "max": 0,
          "per": null,
          "autoDeductCharges": true,
          "autoDeductChargesCost": "1"
        },
        "measureTemplate": {
          "type": "",
          "size": "0",
          "overrideColor": false,
          "customColor": "",
          "overrideTexture": false,
          "customTexture": ""
        },
        "attackName": "",
        "actionType": "",
        "attackBonus": "",
        "critConfirmBonus": "",
        "damage": {
          "parts": [],
          "critParts": [],
          "nonCritParts": []
        },
        "attackParts": [],
        "formulaicAttacks": {
          "count": {
            "formula": "",
            "value": null
          },
          "bonus": {
            "formula": ""
          },
          "label": null
        },
        "formula": "",
        "ability": {
          "attack": null,
          "damage": null,
          "damageMult": 1,
          "critRange": 20,
          "critMult": 2
        },
        "save": {
          "dc": 0,
          "type": "",
          "description": ""
        },
        "effectNotes": "",
        "attackNotes": "",
        "soundEffect": "",
        "changes": [
          {
            "_id": "zy5pz0i8",
            "formula": "max(0, @abilities.str.mod)",
            "operator": "add",
            "subTarget": "skill.int",
            "modifier": "untyped",
            "priority": 0,
            "value": 0,
            "target": "skill"
          }
        ],
        "changeFlags": {
          "loseDexToAC": false,
          "noEncumbrance": false,
          "mediumArmorFullSpeed": false,
          "heavyArmorFullSpeed": false,
          "noStr": false,
          "noDex": false,
          "oneInt": false,
          "oneWis": false,
          "oneCha": false
        },
        "contextNotes": [],
        "links": {
          "children": [],
          "charges": []
        },
        "tag": "intimidatingProwess",
        "useCustomTag": false,
        "armorProf": {
          "value": [],
          "custom": ""
        },
        "weaponProf": {
          "value": [],
          "custom": ""
        },
        "flags": {
          "boolean": [],
          "dictionary": []
        },
        "scriptCalls": [],
        "featType": "feat",
        "associations": {
          "classes": []
        },
        "showInQuickbar": false,
        "nonlethal": false,
        "abilityType": "none",
        "crOffset": "",
        "disabled": false,
        "recharge": {
          "value": null,
          "charged": false,
          "_deprecated": true
        },
        "time": {
          "value": "",
          "_deprecated": true
        },
        "damageType": {
          "value": "",
          "_deprecated": true
        },
        "attack": {
          "parts": []
        }
      },
      "effects": [],
      "folder": null,
      "sort": 0,
      "permission": {
        "default": 0
      },
      "flags": {}
    },
    {
      "_id": "FUW5mIXHNBBIQ1Sq",
      "name": "Power Attack",
      "type": "feat",
      "img": "systems/pf1/icons/feats/power-attack.jpg",
      "data": {
        "description": {
          "value": "\n                <i>You can make exceptionally deadly melee attacks by sacrificing accuracy for strength.</i>\n                <br />\n                <br />\n                \n                <p><b>Prerequisites</b></p>\n                <p> Str 13, base attack bonus +1.</p>\n                \n            <br />\n                <p><b>Benefits</b></p>\n                <p><p class=\"stat-block-1\"> You can choose to take a &ndash;1 penalty on all melee attack rolls and combat maneuver checks to gain a +2 bonus on all melee damage rolls. This bonus to damage is increased by half (+50%) if you are making an attack with a two-handed weapon, a one handed weapon using two hands, or a primary natural weapon that adds 1-1/2 times your Strength modifier on damage rolls. This bonus to damage is halved (&ndash;50%) if you are making an attack with an off-hand weapon or secondary natural weapon. When your base attack bonus reaches +4, and every 4 points thereafter, the penalty increases by &ndash;1 and the bonus to damage increases by +2. You must choose to use this feat before making an attack roll, and its effects last until your next turn. The bonus damage does not apply to touch attacks or effects that do not deal hit point damage.</p></p>\n                \n            \n            ",
          "chat": "",
          "unidentified": ""
        },
        "tags": [
          [
            "Combat"
          ],
          [
            "Offensive"
          ]
        ],
        "activation": {
          "cost": 1,
          "type": ""
        },
        "unchainedAction": {
          "activation": {
            "cost": 1,
            "type": ""
          }
        },
        "duration": {
          "value": null,
          "units": ""
        },
        "target": {
          "value": ""
        },
        "range": {
          "value": null,
          "units": "",
          "maxIncrements": 1,
          "minValue": null,
          "minUnits": "",
          "long": null
        },
        "uses": {
          "value": 0,
          "max": 0,
          "per": null,
          "autoDeductCharges": true,
          "autoDeductChargesCost": "1"
        },
        "measureTemplate": {
          "type": "",
          "size": "0",
          "overrideColor": false,
          "customColor": "",
          "overrideTexture": false,
          "customTexture": ""
        },
        "attackName": "",
        "actionType": "",
        "attackBonus": "",
        "critConfirmBonus": "",
        "damage": {
          "parts": [],
          "critParts": [],
          "nonCritParts": []
        },
        "attackParts": [],
        "formulaicAttacks": {
          "count": {
            "formula": "",
            "value": null
          },
          "bonus": {
            "formula": ""
          },
          "label": null
        },
        "formula": "",
        "ability": {
          "attack": null,
          "damage": null,
          "damageMult": 1,
          "critRange": 20,
          "critMult": 2
        },
        "save": {
          "dc": 0,
          "type": "",
          "description": ""
        },
        "effectNotes": "",
        "attackNotes": "",
        "soundEffect": "",
        "changes": [],
        "changeFlags": {
          "loseDexToAC": false,
          "noEncumbrance": false,
          "mediumArmorFullSpeed": false,
          "heavyArmorFullSpeed": false,
          "noStr": false,
          "noDex": false,
          "oneInt": false,
          "oneWis": false,
          "oneCha": false
        },
        "contextNotes": [],
        "links": {
          "children": [],
          "charges": []
        },
        "tag": "powerAttack",
        "useCustomTag": false,
        "armorProf": {
          "value": [],
          "custom": ""
        },
        "weaponProf": {
          "value": [],
          "custom": ""
        },
        "flags": {
          "boolean": [],
          "dictionary": []
        },
        "scriptCalls": [],
        "featType": "feat",
        "associations": {
          "classes": []
        },
        "showInQuickbar": false,
        "nonlethal": false,
        "abilityType": "none",
        "crOffset": "",
        "disabled": false,
        "recharge": {
          "value": null,
          "charged": false,
          "_deprecated": true
        },
        "time": {
          "value": "",
          "_deprecated": true
        },
        "damageType": {
          "value": "",
          "_deprecated": true
        },
        "attack": {
          "parts": []
        }
      },
      "effects": [],
      "folder": null,
      "sort": 0,
      "permission": {
        "default": 0
      },
      "flags": {}
    },
    {
      "_id": "n250dFlbykAIAg5Z",
      "name": "Weapon Focus",
      "type": "feat",
      "img": "systems/pf1/icons/feats/weapon-focus.jpg",
      "data": {
        "description": {
          "value": "\n                <i>Choose one type of weapon. You can also choose unarmed strike or grapple (or ray, if you are a spellcaster) as your weapon for the purposes of this feat.</i>\n                <br />\n                <br />\n                \n                <p><b>Prerequisites</b></p>\n                <p> Proficiency with selected weapon, base attack bonus +1.</p>\n                \n            <br />\n                <p><b>Benefits</b></p>\n                <p><p class=\"stat-block-1\"> You gain a +1 bonus on all attack rolls you make using the selected weapon.</p></p>\n                \n            <br />\n                <p><b>Special</b></p>\n                <p><p class=\"stat-block-1\"> You can gain this feat multiple times. Its effects do not stack. Each time you take the feat, it applies to a new type of weapon.</p></p>\n                \n            \n            ",
          "chat": "",
          "unidentified": ""
        },
        "tags": [
          [
            "Combat"
          ],
          [
            "Weapon"
          ],
          [
            "Offensive"
          ]
        ],
        "activation": {
          "cost": 1,
          "type": ""
        },
        "unchainedAction": {
          "activation": {
            "cost": 1,
            "type": ""
          }
        },
        "duration": {
          "value": null,
          "units": ""
        },
        "target": {
          "value": ""
        },
        "range": {
          "value": null,
          "units": "",
          "maxIncrements": 1,
          "minValue": null,
          "minUnits": "",
          "long": null
        },
        "uses": {
          "value": 0,
          "max": 0,
          "per": null,
          "autoDeductCharges": true,
          "autoDeductChargesCost": "1"
        },
        "measureTemplate": {
          "type": "",
          "size": "0",
          "overrideColor": false,
          "customColor": "",
          "overrideTexture": false,
          "customTexture": ""
        },
        "attackName": "",
        "actionType": "",
        "attackBonus": "",
        "critConfirmBonus": "",
        "damage": {
          "parts": [],
          "critParts": [],
          "nonCritParts": []
        },
        "attackParts": [],
        "formulaicAttacks": {
          "count": {
            "formula": "",
            "value": null
          },
          "bonus": {
            "formula": ""
          },
          "label": null
        },
        "formula": "",
        "ability": {
          "attack": null,
          "damage": null,
          "damageMult": 1,
          "critRange": 20,
          "critMult": 2
        },
        "save": {
          "dc": 0,
          "type": "",
          "description": ""
        },
        "effectNotes": "",
        "attackNotes": "",
        "soundEffect": "",
        "changes": [],
        "changeFlags": {
          "loseDexToAC": false,
          "noEncumbrance": false,
          "mediumArmorFullSpeed": false,
          "heavyArmorFullSpeed": false,
          "noStr": false,
          "noDex": false,
          "oneInt": false,
          "oneWis": false,
          "oneCha": false
        },
        "contextNotes": [],
        "links": {
          "children": [],
          "charges": []
        },
        "tag": "weaponFocus",
        "useCustomTag": false,
        "armorProf": {
          "value": [],
          "custom": ""
        },
        "weaponProf": {
          "value": [],
          "custom": ""
        },
        "flags": {
          "boolean": [],
          "dictionary": []
        },
        "scriptCalls": [],
        "featType": "feat",
        "associations": {
          "classes": []
        },
        "showInQuickbar": false,
        "nonlethal": false,
        "abilityType": "none",
        "crOffset": "",
        "disabled": false,
        "recharge": {
          "value": null,
          "charged": false,
          "_deprecated": true
        },
        "time": {
          "value": "",
          "_deprecated": true
        },
        "damageType": {
          "value": "",
          "_deprecated": true
        },
        "attack": {
          "parts": []
        }
      },
      "effects": [],
      "folder": null,
      "sort": 0,
      "permission": {
        "default": 0
      },
      "flags": {}
    },
    {
      "_id": "ny9f0wjjhrccqx9o",
      "name": "Mwk Greataxe",
      "type": "attack",
      "img": null,
      "data": {
        "description": {
          "value": "",
          "chat": "",
          "unidentified": ""
        },
        "tags": [],
        "activation": {
          "cost": 1,
          "type": "attack"
        },
        "unchainedAction": {
          "activation": {
            "cost": 1,
            "type": ""
          }
        },
        "duration": {
          "value": null,
          "units": "inst"
        },
        "target": {
          "value": ""
        },
        "range": {
          "value": "",
          "units": "melee",
          "maxIncrements": 1,
          "minValue": null,
          "minUnits": ""
        },
        "uses": {
          "value": 0,
          "max": 0,
          "per": null,
          "autoDeductCharges": true,
          "autoDeductChargesCost": "1"
        },
        "measureTemplate": {
          "type": "",
          "size": "",
          "overrideColor": false,
          "customColor": "",
          "overrideTexture": false,
          "customTexture": ""
        },
        "attackName": "Greataxe",
        "actionType": "mwak",
        "attackBonus": "1",
        "critConfirmBonus": "",
        "damage": {
          "parts": [
            [
              "3d6+3",
              "S"
            ]
          ],
          "critParts": [],
          "nonCritParts": []
        },
        "attackParts": [],
        "formulaicAttacks": {
          "count": {
            "formula": "",
            "value": null
          },
          "bonus": {
            "formula": ""
          },
          "label": null
        },
        "formula": "",
        "ability": {
          "attack": "str",
          "damage": "str",
          "damageMult": 1,
          "critRange": 20,
          "critMult": "3"
        },
        "save": {
          "dc": 0,
          "type": "",
          "description": ""
        },
        "effectNotes": "",
        "attackNotes": "mwk greataxe +10 (3d6+9/x3 )",
        "soundEffect": "",
        "links": {
          "children": [],
          "charges": []
        },
        "tag": "",
        "useCustomTag": false,
        "flags": {
          "boolean": [],
          "dictionary": []
        },
        "scriptCalls": [],
        "attackType": "weapon",
        "masterwork": true,
        "nonlethal": false,
        "enh": null,
        "proficient": true,
        "primaryAttack": false,
        "showInQuickbar": true,
        "broken": false,
        "held": "normal",
        "conditionals": []
      },
      "effects": [],
      "folder": null,
      "sort": 0,
      "permission": {
        "default": 0
      },
      "flags": {}
    },
    {
      "_id": "5oek5i96pstn81ik",
      "name": "Rock",
      "type": "attack",
      "img": null,
      "data": {
        "description": {
          "value": "",
          "chat": "",
          "unidentified": ""
        },
        "tags": [],
        "activation": {
          "cost": 1,
          "type": "attack"
        },
        "unchainedAction": {
          "activation": {
            "cost": 1,
            "type": ""
          }
        },
        "duration": {
          "value": null,
          "units": "inst"
        },
        "target": {
          "value": ""
        },
        "range": {
          "value": "5",
          "units": "ft",
          "maxIncrements": 1,
          "minValue": null,
          "minUnits": ""
        },
        "uses": {
          "value": 0,
          "max": 0,
          "per": null,
          "autoDeductCharges": true,
          "autoDeductChargesCost": "1"
        },
        "measureTemplate": {
          "type": "",
          "size": "",
          "overrideColor": false,
          "customColor": "",
          "overrideTexture": false,
          "customTexture": ""
        },
        "attackName": "Rock",
        "actionType": "rwak",
        "attackBonus": "1",
        "critConfirmBonus": "",
        "damage": {
          "parts": [
            [
              "1d8+0",
              ""
            ]
          ],
          "critParts": [],
          "nonCritParts": []
        },
        "attackParts": [],
        "formulaicAttacks": {
          "count": {
            "formula": "",
            "value": null
          },
          "bonus": {
            "formula": ""
          },
          "label": null
        },
        "formula": "",
        "ability": {
          "attack": "dex",
          "damage": "str",
          "damageMult": 1,
          "critRange": 20,
          "critMult": 2
        },
        "save": {
          "dc": 0,
          "type": "",
          "description": ""
        },
        "effectNotes": "",
        "attackNotes": "rock +5 (1d8+6 )",
        "soundEffect": "",
        "links": {
          "children": [],
          "charges": []
        },
        "tag": "",
        "useCustomTag": false,
        "flags": {
          "boolean": [],
          "dictionary": []
        },
        "scriptCalls": [],
        "attackType": "weapon",
        "masterwork": false,
        "nonlethal": false,
        "enh": null,
        "proficient": true,
        "primaryAttack": false,
        "showInQuickbar": true,
        "broken": false,
        "held": "normal",
        "conditionals": []
      },
      "effects": [],
      "folder": null,
      "sort": 0,
      "permission": {
        "default": 0
      },
      "flags": {}
    },
    {
      "_id": "k284l6rdutcpc2wl",
      "name": "Special Attack: Rock Throwing (100 Ft.)",
      "type": "attack",
      "img": "systems/pf1/icons/skills/yellow_36.jpg",
      "data": {
        "description": {
          "value": "sbc | Placeholder for Special Attacks, which in most statblocks are listed under 'Special Attacks' in the statistics block, but are described in the 'Special Abilities' block. Remove duplicates as needed!",
          "chat": "",
          "unidentified": ""
        },
        "tags": [],
        "activation": {
          "cost": 1,
          "type": ""
        },
        "unchainedAction": {
          "activation": {
            "cost": 1,
            "type": ""
          }
        },
        "duration": {
          "value": null,
          "units": ""
        },
        "target": {
          "value": ""
        },
        "range": {
          "value": null,
          "units": "",
          "maxIncrements": 1,
          "minValue": null,
          "minUnits": ""
        },
        "uses": {
          "value": 0,
          "max": 0,
          "per": null,
          "autoDeductCharges": true,
          "autoDeductChargesCost": "1"
        },
        "measureTemplate": {
          "type": "",
          "size": "",
          "overrideColor": false,
          "customColor": "",
          "overrideTexture": false,
          "customTexture": ""
        },
        "attackName": "",
        "actionType": null,
        "attackBonus": "",
        "critConfirmBonus": "",
        "damage": {
          "parts": [],
          "critParts": [],
          "nonCritParts": []
        },
        "attackParts": [],
        "formulaicAttacks": {
          "count": {
            "formula": "",
            "value": null
          },
          "bonus": {
            "formula": ""
          },
          "label": null
        },
        "formula": "",
        "ability": {
          "attack": null,
          "damage": null,
          "damageMult": 1,
          "critRange": 20,
          "critMult": 2
        },
        "save": {
          "dc": 0,
          "type": "",
          "description": ""
        },
        "effectNotes": "",
        "attackNotes": "",
        "soundEffect": "",
        "links": {
          "children": [],
          "charges": []
        },
        "tag": "",
        "useCustomTag": false,
        "flags": {
          "boolean": [],
          "dictionary": []
        },
        "scriptCalls": [],
        "attackType": "misc",
        "masterwork": false,
        "nonlethal": false,
        "enh": null,
        "proficient": true,
        "primaryAttack": true,
        "showInQuickbar": true,
        "broken": false,
        "held": "normal",
        "conditionals": []
      },
      "effects": [],
      "folder": null,
      "sort": 0,
      "permission": {
        "default": 0
      },
      "flags": {}
    },
    {
      "_id": "07nm8jcrcpc70ven",
      "name": "Ecology",
      "type": "feat",
      "img": "icons/environment/wilderness/tree-oak.webp",
      "data": {
        "description": {
          "value": "<div><strong>Environment</strong>:  temperate forests</div><div><strong>Organization</strong>:  solitary or hunting party (2-6)</div><div><strong>Treasure</strong>:  standard (mwk greataxe, other treasure)</div>",
          "chat": "",
          "unidentified": ""
        },
        "tags": [],
        "activation": {
          "cost": 1,
          "type": ""
        },
        "unchainedAction": {
          "activation": {
            "cost": 1,
            "type": ""
          }
        },
        "duration": {
          "value": null,
          "units": ""
        },
        "target": {
          "value": ""
        },
        "range": {
          "value": null,
          "units": "",
          "maxIncrements": 1,
          "minValue": null,
          "minUnits": ""
        },
        "uses": {
          "value": 0,
          "max": 0,
          "per": null,
          "autoDeductCharges": true,
          "autoDeductChargesCost": "1"
        },
        "measureTemplate": {
          "type": "",
          "size": "",
          "overrideColor": false,
          "customColor": "",
          "overrideTexture": false,
          "customTexture": ""
        },
        "attackName": "",
        "actionType": null,
        "attackBonus": "",
        "critConfirmBonus": "",
        "damage": {
          "parts": [],
          "critParts": [],
          "nonCritParts": []
        },
        "attackParts": [],
        "formulaicAttacks": {
          "count": {
            "formula": "",
            "value": null
          },
          "bonus": {
            "formula": ""
          },
          "label": null
        },
        "formula": "",
        "ability": {
          "attack": null,
          "damage": null,
          "damageMult": 1,
          "critRange": 20,
          "critMult": 2
        },
        "save": {
          "dc": 0,
          "type": "",
          "description": ""
        },
        "effectNotes": "",
        "attackNotes": "",
        "soundEffect": "",
        "changes": [],
        "changeFlags": {
          "loseDexToAC": false,
          "noEncumbrance": false,
          "mediumArmorFullSpeed": false,
          "heavyArmorFullSpeed": false
        },
        "contextNotes": [],
        "links": {
          "children": [],
          "charges": []
        },
        "tag": "",
        "useCustomTag": false,
        "armorProf": {
          "value": [],
          "custom": ""
        },
        "weaponProf": {
          "value": [],
          "custom": ""
        },
        "flags": {
          "boolean": [],
          "dictionary": []
        },
        "scriptCalls": [],
        "featType": "misc",
        "associations": {
          "classes": []
        },
        "showInQuickbar": false,
        "nonlethal": false,
        "abilityType": "none",
        "crOffset": "",
        "disabled": false
      },
      "effects": [],
      "folder": null,
      "sort": 0,
      "permission": {
        "default": 0
      },
      "flags": {}
    },
    {
      "_id": "wva70vwqrog8s4jg",
      "name": "White Hairs",
      "type": "feat",
      "img": "systems/pf1/icons/skills/yellow_36.jpg",
      "data": {
        "description": {
          "value": "An ohancanu has 2d4 white hairs that connect not only to its head, but to its essence. If one of these hairs is plucked with a successful steal combat maneuver (Pathfinder RPG Advanced Player’s Guide 322), the ohancanu gains 2 negative levels. The ohancanu automatically regrows the lost white hair and recovers the negative levels after 24 hours.",
          "chat": "",
          "unidentified": ""
        },
        "tags": [],
        "activation": {
          "cost": 1,
          "type": ""
        },
        "unchainedAction": {
          "activation": {
            "cost": 1,
            "type": ""
          }
        },
        "duration": {
          "value": null,
          "units": ""
        },
        "target": {
          "value": ""
        },
        "range": {
          "value": null,
          "units": "",
          "maxIncrements": 1,
          "minValue": null,
          "minUnits": ""
        },
        "uses": {
          "value": 0,
          "max": 0,
          "per": null,
          "autoDeductCharges": true,
          "autoDeductChargesCost": "1"
        },
        "measureTemplate": {
          "type": "",
          "size": "",
          "overrideColor": false,
          "customColor": "",
          "overrideTexture": false,
          "customTexture": ""
        },
        "attackName": "",
        "actionType": null,
        "attackBonus": "",
        "critConfirmBonus": "",
        "damage": {
          "parts": [],
          "critParts": [],
          "nonCritParts": []
        },
        "attackParts": [],
        "formulaicAttacks": {
          "count": {
            "formula": "",
            "value": null
          },
          "bonus": {
            "formula": ""
          },
          "label": null
        },
        "formula": "",
        "ability": {
          "attack": null,
          "damage": null,
          "damageMult": 1,
          "critRange": 20,
          "critMult": 2
        },
        "save": {
          "dc": 0,
          "type": "",
          "description": ""
        },
        "effectNotes": "",
        "attackNotes": "",
        "soundEffect": "",
        "changes": [],
        "changeFlags": {
          "loseDexToAC": false,
          "noEncumbrance": false,
          "mediumArmorFullSpeed": false,
          "heavyArmorFullSpeed": false
        },
        "contextNotes": [],
        "links": {
          "children": [],
          "charges": []
        },
        "tag": "",
        "useCustomTag": false,
        "armorProf": {
          "value": [],
          "custom": ""
        },
        "weaponProf": {
          "value": [],
          "custom": ""
        },
        "flags": {
          "boolean": [],
          "dictionary": []
        },
        "scriptCalls": [],
        "featType": "classFeat",
        "associations": {
          "classes": []
        },
        "showInQuickbar": false,
        "nonlethal": false,
        "abilityType": "su",
        "crOffset": "",
        "disabled": false
      },
      "effects": [],
      "folder": null,
      "sort": 0,
      "permission": {
        "default": 0
      },
      "flags": {}
    },
    {
      "_id": "Pc5vGwIBX76jLWOp",
      "name": "sbc | Conversion Buff",
      "type": "buff",
      "img": "systems/pf1/icons/skills/yellow_36.jpg",
      "data": {
        "description": {
          "value": "<h2>sbc | Conversion Buff</h2>\n                        This Buff was created by <strong>sbc</strong> to compensate for differences between the input and the values FoundryVTT calculates automatically.\n                        <br><br>\n                        Especially when the pathfinder system gets upgraded, entries in compendiums get updated or foundry changes in some way, this buff may become outdated.\n                        <br><br>\n                        For most mooks the conversion should more or less work, but for important NPCs or creatures it is adviced to double check the conversion manually.",
          "chat": "",
          "unidentified": ""
        },
        "tags": [],
        "changes": [
          {
            "formula": "-6",
            "modifier": "untypedPerm",
            "operator": "add",
            "priority": 0,
            "subTarget": "mhp",
            "target": "misc",
            "value": -6,
            "id": "6ghhnyeq"
          },
          {
            "formula": "-6",
            "modifier": "untypedPerm",
            "operator": "add",
            "priority": 0,
            "subTarget": "skill.int",
            "target": "skill",
            "value": -6,
            "id": "r0ino2jm"
          }
        ],
        "changeFlags": {
          "loseDexToAC": false,
          "noEncumbrance": false,
          "mediumArmorFullSpeed": false,
          "heavyArmorFullSpeed": false,
          "noDex": false,
          "noStr": false,
          "oneCha": false,
          "oneInt": false,
          "oneWis": false
        },
        "contextNotes": [],
        "links": {
          "children": []
        },
        "tag": "sbcConversionBuff",
        "useCustomTag": true,
        "flags": {
          "boolean": [],
          "dictionary": []
        },
        "scriptCalls": [],
        "buffType": "perm",
        "active": true,
        "level": 0,
        "hideFromToken": true,
        "uses": {
          "value": 0,
          "max": 0
        }
      },
      "effects": [],
      "folder": null,
      "sort": 0,
      "permission": {
        "default": 0,
        "iM1ACTqH0Ml6HJtd": 3
      },
      "flags": {}
    }
  ],
  "effects": [],
  "folder": null,
  "sort": 0,
  "permission": {
    "default": 0
  },
  "flags": {},
  "_id": "1q8uc5DwYVzalVGn"
}