{
  "name": "Air Repeater",
  "permission": {
    "default": 0
  },
  "type": "weapon",
  "data": {
    "description": {
      "value": "<p><strong>Source</strong> <em>Heroes of Golarion pg. 18</em></p>\n<h3 class=\"framing\">Statistics</h3>\n<p><strong>Cost</strong> 600 gp <strong>Weight</strong> 6 lbs.</p>\n<p><strong>Damage</strong> 1d6 (small), 1d8 (medium); <strong>Critical</strong> x4; <strong>Range</strong> 50 ft.; <strong>Type</strong> B and P; <strong>Special</strong> -</p>\n<p><strong>Misfire</strong> 1 (see text); <strong>Capacity</strong> 6</p>\n<p><strong>Category</strong> Two-Handed; <strong>Proficiency</strong> Exotic</p>\n<h3 class=\"framing\">Description</h3>\n<p>This long-barreled firearm is powered by a removable compressed air reservoir. A misfire while an air repeater has the broken condition does not cause the firearm to explode, but it does destroy the air reservoir. An air repeater can fire 6 shots before the air reservoir is depleted. An air repeater comes with three air reservoirs. Replacing the air reservoir requires 1 minute. The @Compendium[pf-content.pf-feats.5MEcO5qLxNgAM7zs]{Rapid Reload} feat reduces this to a full-round action.</p>",
      "chat": "",
      "unidentified": ""
    },
    "tags": [],
    "quantity": 1,
    "weight": 60,
    "price": 600,
    "identified": true,
    "hp": {
      "max": 10,
      "value": 10
    },
    "hardness": 10,
    "carried": true,
    "unidentified": {
      "price": 0,
      "name": ""
    },
    "identifiedName": "Air Repeater",
    "cl": 0,
    "aura": {
      "custom": false,
      "school": ""
    },
    "changes": [],
    "changeFlags": {
      "loseDexToAC": false,
      "noEncumbrance": false,
      "mediumArmorFullSpeed": false,
      "heavyArmorFullSpeed": false
    },
    "contextNotes": [],
    "links": {
      "children": []
    },
    "tag": "airRepeater",
    "useCustomTag": false,
    "flags": {
      "boolean": [],
      "dictionary": []
    },
    "equipped": true,
    "masterwork": false,
    "nonlethal": false,
    "weaponType": "exotic",
    "weaponSubtype": "2h",
    "properties": {
      "blc": false,
      "brc": false,
      "dea": false,
      "dis": false,
      "dst": false,
      "dbl": false,
      "fin": false,
      "frg": false,
      "grp": false,
      "imp": false,
      "mnk": false,
      "nnl": false,
      "prf": false,
      "rch": false,
      "snd": false,
      "thr": false,
      "trp": false
    },
    "enh": null,
    "weaponData": {
      "damageRoll": "1d8",
      "damageType": "B and P",
      "critRange": "NULL",
      "critMult": "4",
      "range": 50,
      "attackFormula": "",
      "damageFormula": "",
      "size": "med",
      "maxRangeIncrements": 1
    },
    "broken": false,
    "bonus": {
      "value": 0,
      "_deprecated": true
    },
    "damageType": {
      "value": "",
      "_deprecated": true
    },
    "damage2": {
      "value": "",
      "_deprecated": true
    },
    "damage2Type": {
      "value": "",
      "_deprecated": true
    },
    "damage": {
      "parts": [],
      "critParts": [],
      "nonCritParts": []
    },
    "uses": {
      "value": 0,
      "max": 0
    }
  },
  "flags": {},
  "img": "icons/weapons/guns/gun-wood.webp",
  "effects": [],
  "_id": "an7axxZjvKQogI90"
}