{
  "name": "Cylinder Rifle",
  "permission": {
    "default": 0
  },
  "type": "weapon",
  "data": {
    "description": {
      "value": "<p><strong>Source</strong> <em>People of the Wastes pg. 15</em></p>\n<h3 class=\"framing\"><img style=\"margin: 3px 3px 0px 3px;\" title=\"PFS Legal\" src=\"https://www.aonprd.com/images/PathfinderSocietySymbol.gif\" />Statistics</h3>\n<p><strong>Cost</strong> 6,000 gp <strong>Weight</strong> 12 lbs.</p>\n<p><strong>Damage</strong> 1d6 (small), 1d8 (medium); <strong>Critical</strong> x4; <strong>Range</strong> 40 ft.; <strong>Type</strong> B and P; <strong>Special</strong> -</p>\n<p><strong>Misfire</strong> 1-3 (10 ft.); <strong>Capacity</strong> 8</p>\n<p><strong>Category</strong> Two-Handed; <strong>Proficiency</strong> Exotic</p>\n<h3 class=\"framing\">Description</h3>\n<p>This long-barreled early firearm has a slim horizontal disk with eight uncovered slots, each of which can hold one bullet and 1 dose of black powder (but not alchemical cartridges).</p>\n<p>Each time the weapon is fired, the disk rotates to load the next available shot. Misfiring with a cylinder rifle causes rogue sparks to cause the gun to erratically fire all the remaining bullets loaded in the disk, and each stray bullet has a 50% chance to hit the wielder, dealing 1d6 points of damage.</p>\n<p>Reloading a cylinder rifle requires two full-round actions, regardless of the number of slots being loaded. The @Compendium[pf-content.pf-feats.5MEcO5qLxNgAM7zs]{Rapid Reload} feat reduces this to a single full-round action.</p>",
      "chat": "",
      "unidentified": ""
    },
    "tags": [],
    "quantity": 1,
    "weight": 120,
    "price": 6000,
    "identified": true,
    "hp": {
      "max": 10,
      "value": 10
    },
    "hardness": 10,
    "carried": true,
    "unidentified": {
      "price": 0,
      "name": ""
    },
    "identifiedName": "Cylinder Rifle",
    "cl": 0,
    "aura": {
      "custom": false,
      "school": ""
    },
    "changes": [],
    "changeFlags": {
      "loseDexToAC": false,
      "noEncumbrance": false,
      "mediumArmorFullSpeed": false,
      "heavyArmorFullSpeed": false
    },
    "contextNotes": [],
    "links": {
      "children": []
    },
    "tag": "cylinderRifle",
    "useCustomTag": false,
    "flags": {
      "boolean": [],
      "dictionary": []
    },
    "equipped": true,
    "masterwork": false,
    "nonlethal": false,
    "weaponType": "exotic",
    "weaponSubtype": "2h",
    "properties": {
      "blc": false,
      "brc": false,
      "dea": false,
      "dis": false,
      "dst": false,
      "dbl": false,
      "fin": false,
      "frg": false,
      "grp": false,
      "imp": false,
      "mnk": false,
      "nnl": false,
      "prf": false,
      "rch": false,
      "snd": false,
      "thr": false,
      "trp": false
    },
    "enh": null,
    "weaponData": {
      "damageRoll": "1d8",
      "damageType": "B and P",
      "critRange": "NULL",
      "critMult": "4",
      "range": 40,
      "attackFormula": "",
      "damageFormula": "",
      "size": "med",
      "maxRangeIncrements": 1
    },
    "broken": false,
    "bonus": {
      "value": 0,
      "_deprecated": true
    },
    "damageType": {
      "value": "",
      "_deprecated": true
    },
    "damage2": {
      "value": "",
      "_deprecated": true
    },
    "damage2Type": {
      "value": "",
      "_deprecated": true
    },
    "damage": {
      "parts": [],
      "critParts": [],
      "nonCritParts": []
    },
    "uses": {
      "value": 0,
      "max": 0
    }
  },
  "flags": {},
  "img": "icons/weapons/guns/gun-wood.webp",
  "effects": [],
  "_id": "YHAGfpGI0Ghd9udz"
}