{
  "_id": "7sMY07dTQ2JKGYMl",
  "name": "Harpoon",
  "permission": {
    "default": 0
  },
  "type": "weapon",
  "data": {
    "description": {
      "value": "<p><strong>Source</strong> <em>Ultimate Equipment pg. 20</em>, <em>Pirates of the Inner Sea pg. 19</em>, <em>Skull and Shackles Player's Guide pg. 6</em></p><h3 class=\"framing\">Statistics</h3><p><strong>Cost</strong> 5 gp <strong>Weight</strong> 16 lbs.</p><p><strong>Damage</strong> 1d6 (small), 1d8 (medium); <strong>Critical</strong> x3; <strong>Range</strong> 10 ft.; <strong>Type</strong> P; <strong>Special</strong> grapple, see text</p><p><strong>Category</strong> Two-Handed; <strong>Proficiency</strong> Exotic</p><p><strong>Weapon Groups</strong> Spears; Thrown</p><h3 class=\"framing\">Description</h3><p>A harpoon is a barbed spear with an attached rope 50 feet or less in length. Most harpoons have metal points, but some use ivory or are made entirely of wood. If you are proficient with the harpoon, it is a grappling weapon. A harpoon's weight includes 10 pounds for the weight of 50 feet of hemp rope. The weight can be reduced by using shorter or lighter rope. If you are not proficient with a harpoon, treat it like a spear.</p>",
      "chat": "",
      "unidentified": ""
    },
    "tags": [],
    "quantity": 1,
    "weight": 16,
    "price": 5,
    "identified": true,
    "hp": {
      "max": 10,
      "value": 10
    },
    "hardness": 10,
    "carried": true,
    "unidentified": {
      "price": 0,
      "name": ""
    },
    "identifiedName": "Harpoon",
    "cl": 0,
    "aura": {
      "custom": false,
      "school": ""
    },
    "changes": [],
    "changeFlags": {
      "loseDexToAC": false,
      "noEncumbrance": false,
      "mediumArmorFullSpeed": false,
      "heavyArmorFullSpeed": false,
      "noStr": false,
      "noDex": false,
      "oneInt": false,
      "oneWis": false,
      "oneCha": false
    },
    "contextNotes": [],
    "links": {
      "children": []
    },
    "tag": "harpoon",
    "useCustomTag": false,
    "flags": {
      "boolean": [],
      "dictionary": []
    },
    "equipped": true,
    "masterwork": false,
    "nonlethal": false,
    "weaponType": "exotic",
    "weaponSubtype": "2h",
    "properties": {
      "blc": false,
      "brc": false,
      "dbl": false,
      "dis": false,
      "fin": false,
      "frg": false,
      "imp": false,
      "mnk": false,
      "nnl": false,
      "prf": false,
      "rch": false,
      "thr": false,
      "trp": false,
      "grp": true,
      "snd": false,
      "dea": false,
      "dst": false
    },
    "enh": null,
    "weaponData": {
      "damageRoll": "1d8",
      "damageType": "P",
      "critRange": 20,
      "critMult": 3,
      "range": 10,
      "attackFormula": "",
      "damageFormula": "",
      "size": "med",
      "maxRangeIncrements": 1
    },
    "broken": false,
    "bonus": {
      "value": 0,
      "_deprecated": true
    },
    "damageType": {
      "value": "",
      "_deprecated": true
    },
    "damage2": {
      "value": "",
      "_deprecated": true
    },
    "damage2Type": {
      "value": "",
      "_deprecated": true
    },
    "damage": {
      "parts": []
    },
    "uses": {
      "value": 0,
      "max": 0
    }
  },
  "flags": {},
  "img": "systems/pf1/icons/items/weapons/harpoon.PNG",
  "effects": []
}